com\admin\dto\abstracts\AbstractStatusHelperDto.class
com\admin\mapper\AdminMapper.class
com\admin\service\FeeGroupService.class
com\admin\dao\GenderDao.class
com\admin\daoImpl\StatusableDaoImpl.class
com\admin\dto\BranchDto.class
com\admin\dto\StatusDto.class
com\admin\dto\abstracts\AbstractChangedByHelperDto.class
com\admin\service\LedgerGroupService.class
com\admin\serviceImpl\LedgerGroupServiceImpl.class
com\admin\dto\LedgerGroupDto.class
com\admin\dto\abstracts\AbstractCodeDto.class
com\admin\serviceImpl\DepartmentServiceImpl.class
com\admin\constant\BranchConstants.class
com\admin\constant\StatusConstants.class
com\admin\daoImpl\AdminDaoImpl.class
com\admin\mapper\FeeGroupMapper.class
com\admin\dto\CollegeDto.class
com\admin\constant\LedgerGroupMainConstants.class
com\admin\dto\abstracts\AbstractProfileDto.class
com\admin\dto\DepartmentDto.class
com\admin\mapper\AbstractAdminEmployeeParentMapper.class
com\admin\dao\StatusableDao.class
com\admin\dao\LedgerGroupDao.class
com\admin\mapper\AbstractProfileMapper.class
com\admin\daoImpl\StatusDaoImpl.class
com\admin\dao\BillingPeriodDao.class
com\admin\dto\DesignationDto.class
com\admin\dao\StatusDao.class
com\admin\dto\abstracts\AbstractDeletedByHelperDto.class
com\admin\service\DesignationService.class
com\admin\dto\AdminProfileDto.class
com\admin\mapper\AbstractAdminMapper.class
com\admin\daoImpl\DesignationDaoImpl.class
com\admin\mapper\AbstractBlockUnblockHelperMapper.class
com\admin\daoImpl\BranchDaoImpl.class
com\admin\mapper\LedgerGroupMapper.class
com\admin\dto\BillingPeriodDto.class
com\admin\dao\DepartmentDao.class
com\admin\daoImpl\GenderDaoImpl.class
com\admin\mapper\BillingPeriodMapper.class
com\admin\service\DepartmentService.class
com\admin\dto\abstracts\AbstractUserDto.class
com\admin\mapper\AbstractCodeMapper.class
com\admin\dao\GenericDao.class
com\admin\util\Utility.class
com\admin\mapper\AbstractStatusHelperMapper.class
com\admin\mapper\CollegeMapper.class
com\admin\mapper\DesignationMapper.class
com\admin\constant\GenderConstants.class
com\admin\mapper\DepartmentMapper.class
com\admin\dao\FeeGroupDao.class
com\admin\service\BillingPeriodService.class
com\admin\dao\BranchDao.class
com\admin\serviceImpl\FeeGroupServiceImpl.class
com\admin\daoImpl\GenericDaoImpl.class
com\admin\daoImpl\CollegeDaoImpl.class
com\admin\mapper\GenderMapper.class
com\admin\dto\abstracts\AbstractAdminEmployeeParentDto.class
com\admin\dto\abstracts\AbstractDto.class
com\admin\serviceImpl\DesignationServiceImpl.class
com\admin\dto\abstracts\AbstractBlockUnblockHelperDto.class
com\admin\daoImpl\FeeGroupDaoImpl.class
com\admin\daoImpl\DepartmentDaoImpl.class
com\admin\dto\FeeGroupDto.class
com\admin\mapper\StatusMapper.class
com\admin\dao\AdminDao.class
com\admin\dao\CollegeDao.class
com\admin\daoImpl\LedgerGroupDaoImpl.class
com\admin\dto\GenderDto.class
com\admin\serviceImpl\BillingPeriodServiceImpl.class
com\admin\dao\DesignationDao.class
com\admin\mapper\AbstractUserMapper.class
com\admin\daoImpl\BillingPeriodDaoImpl.class
com\admin\dto\abstracts\AbstractAdminDto.class
com\admin\dto\AdminDto.class
com\admin\dto\abstracts\AbstractAdminUserDto.class
